(module Texas_Instruments-INA321EA_2K5-Level_C (layer F.Cu) (tedit 5EF1465D)
(fp_circle (center -2.1250000000 -1.7499990000) (end -1.9999990000 -1.7499990000) (layer F.SilkS) (width 0.249999))
(fp_line (start -1.1500000000 1.5499990000) (end 1.1500000000 1.5499990000) (layer F.SilkS) (width 0.15))
(fp_line (start -1.1500000000 -1.5499990000) (end 1.1500000000 -1.5499990000) (layer F.SilkS) (width 0.15))
(fp_line (start 1.1500000000 1.5499990000) (end 1.1500000000 -1.5499990000) (layer F.SilkS) (width 0.15))
(fp_line (start -1.1500000000 1.5499990000) (end -1.1500000000 -1.5499990000) (layer F.SilkS) (width 0.15))
(fp_line (start -1.5499990000 1.5499990000) (end 1.5499990000 1.5499990000) (layer F.Fab) (width 0.1))
(fp_line (start -1.5499990000 -1.5499990000) (end 1.5499990000 -1.5499990000) (layer F.Fab) (width 0.1))
(fp_line (start 1.5499990000 1.5499990000) (end 1.5499990000 -1.5499990000) (layer F.Fab) (width 0.1))
(fp_line (start -1.5499990000 1.5499990000) (end -1.5499990000 -1.5499990000) (layer F.Fab) (width 0.1))
(fp_text reference REF** (at -1.3970000000 -0.0960000000 0.0000000000) (layer F.SilkS) (effects (justify left) (font (size 0.700001 0.700001) (thickness 0.15))))
(fp_line (start 2.7249990000 -1.5749970000) (end 2.7249990000 -1.5749970000) (layer F.CrtYd) (width 0.15))
(fp_line (start 2.7249990000 -1.5749970000) (end -2.7249990000 -1.5749970000) (layer F.CrtYd) (width 0.15))
(fp_line (start -2.7249990000 -1.5749970000) (end -2.7249990000 1.5750030000) (layer F.CrtYd) (width 0.15))
(fp_line (start -2.7249990000 1.5750030000) (end 2.7249990000 1.5750030000) (layer F.CrtYd) (width 0.15))
(fp_line (start 2.7249990000 1.5750030000) (end 2.7249990000 -1.5749970000) (layer F.CrtYd) (width 0.15))
(pad 5 smd roundrect (at 2.1250000000 0.9750015000 270)(size 0.4499990000 1.1500000000)(roundrect_rratio 0.4399965333)(layers F.Cu F.Mask F.Paste))
(pad 6 smd roundrect (at 2.1250000000 0.3250005000 270)(size 0.4499990000 1.1500000000)(roundrect_rratio 0.4399965333)(layers F.Cu F.Mask F.Paste))
(pad 7 smd roundrect (at 2.1250000000 -0.3249975000 270)(size 0.4499990000 1.1500000000)(roundrect_rratio 0.4399965333)(layers F.Cu F.Mask F.Paste))
(pad 8 smd roundrect (at 2.1250000000 -0.9749985000 270)(size 0.4499990000 1.1500000000)(roundrect_rratio 0.4399965333)(layers F.Cu F.Mask F.Paste))
(pad 4 smd roundrect (at -2.1250000000 0.9750015000 270)(size 0.4499990000 1.1500000000)(roundrect_rratio 0.4399965333)(layers F.Cu F.Mask F.Paste))
(pad 3 smd roundrect (at -2.1250000000 0.3250005000 270)(size 0.4499990000 1.1500000000)(roundrect_rratio 0.4399965333)(layers F.Cu F.Mask F.Paste))
(pad 2 smd roundrect (at -2.1250000000 -0.3249975000 270)(size 0.4499990000 1.1500000000)(roundrect_rratio 0.4399965333)(layers F.Cu F.Mask F.Paste))
(pad 1 smd roundrect (at -2.1250000000 -0.9749985000 270)(size 0.4499990000 1.1500000000)(roundrect_rratio 0.4399965333)(layers F.Cu F.Mask F.Paste))
)
