EESchema Schematic File Version 4
EELAYER 30 0
EELAYER END
$Descr A4 11693 8268
encoding utf-8
Sheet 1 1
Title ""
Date "2020-09-10"
Rev "v02"
Comp ""
Comment1 ""
Comment2 ""
Comment3 "ECG acquisition board"
Comment4 "Author: Damjan Prerad"
$EndDescr
$Comp
L Device:R R1
U 1 1 5F51F367
P 1100 1750
F 0 "R1" H 1170 1796 50  0000 L CNN
F 1 "47k" H 1170 1705 50  0000 L CNN
F 2 "Resistors_SMD:R_0603_HandSoldering" V 1030 1750 50  0001 C CNN
F 3 "~" H 1100 1750 50  0001 C CNN
	1    1100 1750
	1    0    0    -1  
$EndComp
$Comp
L Device:R R2
U 1 1 5F520775
P 1100 2250
F 0 "R2" H 1170 2296 50  0000 L CNN
F 1 "47k" H 1170 2205 50  0000 L CNN
F 2 "Resistors_SMD:R_0603_HandSoldering" V 1030 2250 50  0001 C CNN
F 3 "~" H 1100 2250 50  0001 C CNN
	1    1100 2250
	1    0    0    -1  
$EndComp
$Comp
L power:GND #PWR04
U 1 1 5F520AE8
P 1100 2600
F 0 "#PWR04" H 1100 2350 50  0001 C CNN
F 1 "GND" H 1105 2427 50  0000 C CNN
F 2 "" H 1100 2600 50  0001 C CNN
F 3 "" H 1100 2600 50  0001 C CNN
	1    1100 2600
	1    0    0    -1  
$EndComp
$Comp
L power:VCC #PWR03
U 1 1 5F52165D
P 1100 1200
F 0 "#PWR03" H 1100 1050 50  0001 C CNN
F 1 "VCC" H 1115 1373 50  0000 C CNN
F 2 "" H 1100 1200 50  0001 C CNN
F 3 "" H 1100 1200 50  0001 C CNN
	1    1100 1200
	1    0    0    -1  
$EndComp
$Comp
L Device:C C3
U 1 1 5F525E9E
P 2300 1500
F 0 "C3" H 2415 1546 50  0000 L CNN
F 1 "0.1uF" H 2415 1455 50  0000 L CNN
F 2 "Capacitors_SMD:C_0603_HandSoldering" H 2338 1350 50  0001 C CNN
F 3 "~" H 2300 1500 50  0001 C CNN
	1    2300 1500
	1    0    0    -1  
$EndComp
Wire Wire Line
	1100 2400 1100 2600
Wire Wire Line
	1500 2500 2650 2500
Wire Wire Line
	2650 2500 2650 2100
$Comp
L power:GND #PWR011
U 1 1 5F527333
P 2300 1750
F 0 "#PWR011" H 2300 1500 50  0001 C CNN
F 1 "GND" H 2305 1577 50  0000 C CNN
F 2 "" H 2300 1750 50  0001 C CNN
F 3 "" H 2300 1750 50  0001 C CNN
	1    2300 1750
	1    0    0    -1  
$EndComp
$Comp
L power:VCC #PWR07
U 1 1 5F529099
P 1800 1200
F 0 "#PWR07" H 1800 1050 50  0001 C CNN
F 1 "VCC" H 1815 1373 50  0000 C CNN
F 2 "" H 1800 1200 50  0001 C CNN
F 3 "" H 1800 1200 50  0001 C CNN
	1    1800 1200
	1    0    0    -1  
$EndComp
Wire Wire Line
	1100 1200 1100 1600
Wire Wire Line
	1800 1200 1800 1300
Wire Wire Line
	2650 2100 2850 2100
Text GLabel 2850 2100 2    50   Input ~ 0
ECG_REF
$Comp
L Device:R R4
U 1 1 5F52A533
P 3850 1250
F 0 "R4" H 3920 1296 50  0000 L CNN
F 1 "100k" H 3920 1205 50  0000 L CNN
F 2 "Resistors_SMD:R_0603_HandSoldering" V 3780 1250 50  0001 C CNN
F 3 "~" H 3850 1250 50  0001 C CNN
	1    3850 1250
	1    0    0    -1  
$EndComp
$Comp
L Device:R R5
U 1 1 5F52B53D
P 3850 1750
F 0 "R5" H 3920 1796 50  0000 L CNN
F 1 "2.2M" H 3920 1705 50  0000 L CNN
F 2 "Resistors_SMD:R_0603_HandSoldering" V 3780 1750 50  0001 C CNN
F 3 "~" H 3850 1750 50  0001 C CNN
	1    3850 1750
	1    0    0    -1  
$EndComp
$Comp
L Device:R R6
U 1 1 5F52B9B8
P 3850 2250
F 0 "R6" H 3920 2296 50  0000 L CNN
F 1 "2.2M" H 3920 2205 50  0000 L CNN
F 2 "Resistors_SMD:R_0603_HandSoldering" V 3780 2250 50  0001 C CNN
F 3 "~" H 3850 2250 50  0001 C CNN
	1    3850 2250
	1    0    0    -1  
$EndComp
$Comp
L Device:R R7
U 1 1 5F52BC74
P 3850 2750
F 0 "R7" H 3920 2796 50  0000 L CNN
F 1 "100k" H 3920 2705 50  0000 L CNN
F 2 "Resistors_SMD:R_0603_HandSoldering" V 3780 2750 50  0001 C CNN
F 3 "~" H 3850 2750 50  0001 C CNN
	1    3850 2750
	1    0    0    -1  
$EndComp
$Comp
L eec:INA321EA_2K5 U4
U 1 1 5F52ECFC
P 4450 1800
F 0 "U4" H 4950 1650 50  0000 C CNN
F 1 "INA321EA_2K5" H 4550 2050 50  0000 C CNN
F 2 "eec:Texas_Instruments-INA321EA_2K5-Level_B" H 4450 2100 50  0001 L CNN
F 3 "http://www.ti.com/general/docs/lit/getliterature.tsp?genericPartNumber=INA321&fileType=pdf" H 4450 2200 50  0001 L CNN
F 4 "100(Min)(kHz)=50" H 4450 2300 50  0001 L CNN "Bandwidth at G"
F 5 "" H 4450 2400 50  0001 L CNN "CMRR Min dB"
F 6 "80" H 4450 2500 50  0001 L CNN "CMRR Mind B"
F 7 "MO-187" H 4450 2600 50  0001 L CNN "Code  JEDEC"
F 8 "Manufacturer URL" H 4450 2700 50  0001 L CNN "Component Link 1 Description"
F 9 "http://www.ti.com/" H 4450 2800 50  0001 L CNN "Component Link 1 URL"
F 10 "Package Specification" H 4450 2900 50  0001 L CNN "Component Link 3 Description"
F 11 "http://www.ti.com/litv/pdf/mpds028d" H 4450 3000 50  0001 L CNN "Component Link 3 URL"
F 12 "SBOS168D" H 4450 3100 50  0001 L CNN "Datasheet Version"
F 13 "Green (RoHS & no Sb/Br)" H 4450 3200 50  0001 L CNN "Eco  Plan"
F 14 "" H 4450 3300 50  0001 L CNN "Gain VV"
F 15 "5 to 1000" H 4450 3400 50  0001 L CNN "Gain V V"
F 16 "0.01" H 4450 3500 50  0001 L CNN "Input Bias Current  MaxnA"
F 17 "" H 4450 3600 50  0001 L CNN "Input Bias Current   Max nA"
F 18 "" H 4450 3700 50  0001 L CNN "Input Offset Drift  MaxuVDegrees Celsius"
F 19 "" H 4450 3800 50  0001 L CNN "Input Offset Drift   Max uVDegrees Celsius"
F 20 "1000" H 4450 3900 50  0001 L CNN "Input Offset  MaxuV"
F 21 "" H 4450 4000 50  0001 L CNN "Input Offset   Max uV"
F 22 "" H 4450 4100 50  0001 L CNN "Iq Typ mA"
F 23 "Surface Mount" H 4450 4200 50  0001 L CNN "Mounting Technology"
F 24 "100" H 4450 4300 50  0001 L CNN "Noise at 1kHzTypnVrtHz"
F 25 "" H 4450 4400 50  0001 L CNN "Noise at 1kHz Typ nVrtHz"
F 26 "0.01" H 4450 4500 50  0001 L CNN "Non Linearity  Max"
F 27 "" H 4450 4600 50  0001 L CNN "Non Linearity   Max "
F 28 "1" H 4450 4700 50  0001 L CNN "Number of Channels"
F 29 "" H 4450 4800 50  0001 L CNN "Operating Temperature Range"
F 30 "" H 4450 4900 50  0001 L CNN "Output Offset Drift  MaxuVDegrees Celsius"
F 31 "" H 4450 5000 50  0001 L CNN "Output Offset  MaxuV"
F 32 "8-Pin Thin Small Outline, Body 3 x 3 mm, Pitch 0.65 mm" H 4450 5100 50  0001 L CNN "Package Description"
F 33 "4073329/E, 05/2006" H 4450 5200 50  0001 L CNN "Package Version"
F 34 "" H 4450 5300 50  0001 L CNN "Packing"
F 35 "0.04" H 4450 5400 50  0001 L CNN "Quiescent Current  TypmA"
F 36 "Single Supply" H 4450 5500 50  0001 L CNN "Sub Family"
F 37 "" H 4450 5600 50  0001 L CNN "Vs Max"
F 38 "5.5" H 4450 5700 50  0001 L CNN "Vs Max V"
F 39 "" H 4450 5800 50  0001 L CNN "Vs Min"
F 40 "2.5" H 4450 5900 50  0001 L CNN "Vs Min V"
F 41 "IC" H 4450 6000 50  0001 L CNN "category"
F 42 "1216159" H 4450 6100 50  0001 L CNN "ciiva ids"
F 43 "33821786b46b8108" H 4450 6200 50  0001 L CNN "library id"
F 44 "Texas Instruments" H 4450 6300 50  0001 L CNN "manufacturer"
F 45 "DGK0008A" H 4450 6400 50  0001 L CNN "package"
F 46 "1464162506" H 4450 6500 50  0001 L CNN "release date"
F 47 "86422B9E-9926-4A4F-A389-A1D861BA7488" H 4450 6600 50  0001 L CNN "vault revision"
F 48 "yes" H 4450 6700 50  0001 L CNN "imported"
	1    4450 1800
	1    0    0    -1  
$EndComp
$Comp
L Amplifier_Operational:OPA4340UA U2
U 1 1 5F531AF7
P 1900 2100
F 0 "U2" H 1950 2350 50  0000 C CNN
F 1 "OPA4340UA" H 2100 1900 50  0000 C CNN
F 2 "Housings_SOIC:SOIC-14_3.9x8.7mm_Pitch1.27mm" H 1850 2200 50  0001 C CNN
F 3 "http://www.ti.com/lit/ds/symlink/opa340.pdf" H 1950 2300 50  0001 C CNN
	1    1900 2100
	1    0    0    -1  
$EndComp
Wire Wire Line
	1100 1900 1100 2000
Wire Wire Line
	1800 1300 2300 1300
Wire Wire Line
	2300 1300 2300 1350
Wire Wire Line
	2300 1750 2300 1650
Wire Wire Line
	1600 2000 1100 2000
Connection ~ 1100 2000
Wire Wire Line
	1100 2000 1100 2100
Wire Wire Line
	2200 2100 2650 2100
Connection ~ 2650 2100
Wire Wire Line
	1600 2200 1500 2200
Wire Wire Line
	1500 2200 1500 2500
$Comp
L Amplifier_Operational:OPA4340UA U2
U 2 1 5F538547
P 6200 2200
F 0 "U2" H 6200 1833 50  0000 C CNN
F 1 "OPA4340UA" H 6200 1924 50  0000 C CNN
F 2 "Housings_SOIC:SOIC-14_3.9x8.7mm_Pitch1.27mm" H 6150 2300 50  0001 C CNN
F 3 "http://www.ti.com/lit/ds/symlink/opa340.pdf" H 6250 2400 50  0001 C CNN
	2    6200 2200
	1    0    0    1   
$EndComp
$Comp
L Device:R R8
U 1 1 5F53CE42
P 5550 2100
F 0 "R8" V 5343 2100 50  0000 C CNN
F 1 "1M" V 5434 2100 50  0000 C CNN
F 2 "Resistors_SMD:R_0603_HandSoldering" V 5480 2100 50  0001 C CNN
F 3 "~" H 5550 2100 50  0001 C CNN
	1    5550 2100
	0    1    1    0   
$EndComp
$Comp
L Device:C C8
U 1 1 5F53E2AB
P 6200 1650
F 0 "C8" V 5948 1650 50  0000 C CNN
F 1 "0.1uF" V 6039 1650 50  0000 C CNN
F 2 "Capacitors_SMD:C_0603_HandSoldering" H 6238 1500 50  0001 C CNN
F 3 "~" H 6200 1650 50  0001 C CNN
	1    6200 1650
	0    1    1    0   
$EndComp
Wire Wire Line
	3850 1400 3850 1500
Wire Wire Line
	3850 1900 3850 2000
Wire Wire Line
	3850 2400 3850 2500
Wire Wire Line
	5150 2100 5300 2100
Wire Wire Line
	5150 1900 5300 1900
Wire Wire Line
	5300 1900 5300 2100
Connection ~ 5300 2100
Wire Wire Line
	5300 2100 5400 2100
Wire Wire Line
	5800 1650 6050 1650
Wire Wire Line
	6600 2200 6500 2200
Wire Wire Line
	6350 1650 6600 1650
Wire Wire Line
	5150 2300 5300 2300
Wire Wire Line
	5300 2300 5300 2600
Wire Wire Line
	5300 2600 6600 2600
Wire Wire Line
	6600 2600 6600 2200
$Comp
L Device:C C7
U 1 1 5F543962
P 5050 1350
F 0 "C7" H 5165 1396 50  0000 L CNN
F 1 "0.1uF" H 5165 1305 50  0000 L CNN
F 2 "Capacitors_SMD:C_0603_HandSoldering" H 5088 1200 50  0001 C CNN
F 3 "~" H 5050 1350 50  0001 C CNN
	1    5050 1350
	1    0    0    -1  
$EndComp
$Comp
L power:GND #PWR018
U 1 1 5F54436C
P 5050 1600
F 0 "#PWR018" H 5050 1350 50  0001 C CNN
F 1 "GND" H 5055 1427 50  0000 C CNN
F 2 "" H 5050 1600 50  0001 C CNN
F 3 "" H 5050 1600 50  0001 C CNN
	1    5050 1600
	1    0    0    -1  
$EndComp
$Comp
L power:GND #PWR016
U 1 1 5F5448A6
P 4850 2600
F 0 "#PWR016" H 4850 2350 50  0001 C CNN
F 1 "GND" H 4855 2427 50  0000 C CNN
F 2 "" H 4850 2600 50  0001 C CNN
F 3 "" H 4850 2600 50  0001 C CNN
	1    4850 2600
	1    0    0    -1  
$EndComp
Wire Wire Line
	4850 2600 4850 2400
Wire Wire Line
	5050 1500 5050 1600
$Comp
L power:VCC #PWR015
U 1 1 5F5462D6
P 4850 1050
F 0 "#PWR015" H 4850 900 50  0001 C CNN
F 1 "VCC" H 4865 1223 50  0000 C CNN
F 2 "" H 4850 1050 50  0001 C CNN
F 3 "" H 4850 1050 50  0001 C CNN
	1    4850 1050
	1    0    0    -1  
$EndComp
Wire Wire Line
	4850 1050 4850 1150
Wire Wire Line
	5050 1200 5050 1150
Wire Wire Line
	5050 1150 4850 1150
Connection ~ 4850 1150
Wire Wire Line
	4850 1150 4850 1650
Wire Wire Line
	4550 1800 4500 1800
Wire Wire Line
	4500 1800 4500 1650
Wire Wire Line
	4500 1650 4850 1650
Connection ~ 4850 1650
Wire Wire Line
	4850 1650 4850 1800
Wire Wire Line
	3850 1500 4100 1500
Wire Wire Line
	4100 1500 4100 2000
Wire Wire Line
	4100 2000 4550 2000
Connection ~ 3850 1500
Wire Wire Line
	3850 1500 3850 1600
Wire Wire Line
	3850 2500 4100 2500
Wire Wire Line
	4100 2500 4100 2200
Wire Wire Line
	4100 2200 4550 2200
Connection ~ 3850 2500
Wire Wire Line
	3850 2500 3850 2600
Wire Wire Line
	3850 1100 3850 1000
Wire Wire Line
	3850 1000 3600 1000
Wire Wire Line
	3850 2000 3600 2000
Connection ~ 3850 2000
Wire Wire Line
	3850 2000 3850 2100
Wire Wire Line
	3850 2900 3850 3000
Wire Wire Line
	3850 3000 3600 3000
Text GLabel 3600 2000 0    50   Input ~ 0
VR
Text GLabel 3600 3000 0    50   Input ~ 0
ECG+
Text GLabel 3600 1000 0    50   Input ~ 0
ECG-
Wire Wire Line
	5900 2300 5750 2300
Text GLabel 5750 2300 0    50   Input ~ 0
VR
$Comp
L Amplifier_Operational:OPA4340UA U2
U 4 1 5F54F9F9
P 7850 2200
F 0 "U2" H 7850 1833 50  0000 C CNN
F 1 "OPA4340UA" H 7850 1924 50  0000 C CNN
F 2 "Housings_SOIC:SOIC-14_3.9x8.7mm_Pitch1.27mm" H 7800 2300 50  0001 C CNN
F 3 "http://www.ti.com/lit/ds/symlink/opa340.pdf" H 7900 2400 50  0001 C CNN
	4    7850 2200
	1    0    0    1   
$EndComp
$Comp
L Device:R R11
U 1 1 5F5527A1
P 7300 2100
F 0 "R11" V 7093 2100 50  0000 C CNN
F 1 "3.3k" V 7184 2100 50  0000 C CNN
F 2 "Resistors_SMD:R_0603_HandSoldering" V 7230 2100 50  0001 C CNN
F 3 "~" H 7300 2100 50  0001 C CNN
	1    7300 2100
	0    1    1    0   
$EndComp
Wire Wire Line
	5300 1900 5300 850 
Wire Wire Line
	5300 850  7050 850 
Wire Wire Line
	7050 850  7050 2100
Wire Wire Line
	7050 2100 7150 2100
Connection ~ 5300 1900
Wire Wire Line
	7450 2100 7500 2100
$Comp
L Device:R R9
U 1 1 5F555E1E
P 7100 2650
F 0 "R9" H 7170 2696 50  0000 L CNN
F 1 "820" H 7170 2605 50  0000 L CNN
F 2 "Resistors_SMD:R_0603_HandSoldering" V 7030 2650 50  0001 C CNN
F 3 "~" H 7100 2650 50  0001 C CNN
	1    7100 2650
	1    0    0    -1  
$EndComp
$Comp
L Device:R R10
U 1 1 5F556732
P 7100 3150
F 0 "R10" H 7170 3196 50  0000 L CNN
F 1 "1M" H 7170 3105 50  0000 L CNN
F 2 "Resistors_SMD:R_0603_HandSoldering" V 7030 3150 50  0001 C CNN
F 3 "~" H 7100 3150 50  0001 C CNN
	1    7100 3150
	1    0    0    -1  
$EndComp
$Comp
L power:GND #PWR020
U 1 1 5F557016
P 7100 3500
F 0 "#PWR020" H 7100 3250 50  0001 C CNN
F 1 "GND" H 7105 3327 50  0000 C CNN
F 2 "" H 7100 3500 50  0001 C CNN
F 3 "" H 7100 3500 50  0001 C CNN
	1    7100 3500
	1    0    0    -1  
$EndComp
Wire Wire Line
	7100 2800 7100 2900
Wire Wire Line
	7100 3300 7100 3500
Wire Wire Line
	7100 2900 7450 2900
Wire Wire Line
	7450 2900 7450 2300
Wire Wire Line
	7450 2300 7550 2300
Connection ~ 7100 2900
Wire Wire Line
	7100 2900 7100 3000
Wire Wire Line
	7100 2500 7100 2350
Wire Wire Line
	7100 2350 7050 2350
Text GLabel 7050 2350 0    50   Input ~ 0
VR
$Comp
L Amplifier_Operational:OPA4340UA U2
U 3 1 5F55DB1C
P 8800 2300
F 0 "U2" H 8800 2667 50  0000 C CNN
F 1 "OPA4340UA" H 8800 2576 50  0000 C CNN
F 2 "Housings_SOIC:SOIC-14_3.9x8.7mm_Pitch1.27mm" H 8750 2400 50  0001 C CNN
F 3 "http://www.ti.com/lit/ds/symlink/opa340.pdf" H 8850 2500 50  0001 C CNN
	3    8800 2300
	1    0    0    -1  
$EndComp
$Comp
L Device:R R15
U 1 1 5F55EE07
P 9450 2300
F 0 "R15" V 9243 2300 50  0000 C CNN
F 1 "4.7k" V 9334 2300 50  0000 C CNN
F 2 "Resistors_SMD:R_0603_HandSoldering" V 9380 2300 50  0001 C CNN
F 3 "~" H 9450 2300 50  0001 C CNN
	1    9450 2300
	0    1    1    0   
$EndComp
$Comp
L Device:R R16
U 1 1 5F55FB69
P 9950 2300
F 0 "R16" V 9743 2300 50  0000 C CNN
F 1 "47k" V 9834 2300 50  0000 C CNN
F 2 "Resistors_SMD:R_0603_HandSoldering" V 9880 2300 50  0001 C CNN
F 3 "~" H 9950 2300 50  0001 C CNN
	1    9950 2300
	0    1    1    0   
$EndComp
$Comp
L Device:C C12
U 1 1 5F560590
P 9700 2600
F 0 "C12" H 9815 2646 50  0000 L CNN
F 1 "1uF" H 9815 2555 50  0000 L CNN
F 2 "Capacitors_SMD:C_0603_HandSoldering" H 9738 2450 50  0001 C CNN
F 3 "~" H 9700 2600 50  0001 C CNN
	1    9700 2600
	1    0    0    -1  
$EndComp
$Comp
L Device:C C14
U 1 1 5F560A04
P 10200 2600
F 0 "C14" H 10315 2646 50  0000 L CNN
F 1 "0.1uF" H 10315 2555 50  0000 L CNN
F 2 "Capacitors_SMD:C_0603_HandSoldering" H 10238 2450 50  0001 C CNN
F 3 "~" H 10200 2600 50  0001 C CNN
	1    10200 2600
	1    0    0    -1  
$EndComp
$Comp
L power:GND #PWR025
U 1 1 5F5612B9
P 9700 2900
F 0 "#PWR025" H 9700 2650 50  0001 C CNN
F 1 "GND" H 9705 2727 50  0000 C CNN
F 2 "" H 9700 2900 50  0001 C CNN
F 3 "" H 9700 2900 50  0001 C CNN
	1    9700 2900
	1    0    0    -1  
$EndComp
$Comp
L power:GND #PWR027
U 1 1 5F5617BC
P 10200 2900
F 0 "#PWR027" H 10200 2650 50  0001 C CNN
F 1 "GND" H 10205 2727 50  0000 C CNN
F 2 "" H 10200 2900 50  0001 C CNN
F 3 "" H 10200 2900 50  0001 C CNN
	1    10200 2900
	1    0    0    -1  
$EndComp
Wire Wire Line
	8150 2200 8250 2200
Wire Wire Line
	8500 2400 8400 2400
Wire Wire Line
	8400 2400 8400 2550
Wire Wire Line
	8400 2550 9200 2550
Wire Wire Line
	9200 2550 9200 2300
Wire Wire Line
	9200 2300 9100 2300
Wire Wire Line
	9200 2300 9300 2300
Connection ~ 9200 2300
Wire Wire Line
	9600 2300 9700 2300
Wire Wire Line
	9700 2450 9700 2300
Connection ~ 9700 2300
Wire Wire Line
	9700 2300 9800 2300
Wire Wire Line
	10100 2300 10200 2300
Wire Wire Line
	10200 2300 10200 2450
Wire Wire Line
	9700 2750 9700 2900
Wire Wire Line
	10200 2750 10200 2900
Connection ~ 10200 2300
Text GLabel 10700 2850 2    50   Input ~ 0
ECG_OUT
$Comp
L Amplifier_Operational:OPA4340UA U2
U 5 1 5F574420
P 1900 2100
F 0 "U2" H 1900 2250 50  0000 L CNN
F 1 "OPA4340UA" H 1950 2000 50  0000 L CNN
F 2 "Housings_SOIC:SOIC-14_3.9x8.7mm_Pitch1.27mm" H 1850 2200 50  0001 C CNN
F 3 "http://www.ti.com/lit/ds/symlink/opa340.pdf" H 1950 2300 50  0001 C CNN
	5    1900 2100
	1    0    0    -1  
$EndComp
$Comp
L power:GND #PWR08
U 1 1 5F57C6F7
P 1800 2600
F 0 "#PWR08" H 1800 2350 50  0001 C CNN
F 1 "GND" H 1805 2427 50  0000 C CNN
F 2 "" H 1800 2600 50  0001 C CNN
F 3 "" H 1800 2600 50  0001 C CNN
	1    1800 2600
	1    0    0    -1  
$EndComp
Wire Wire Line
	1800 2400 1800 2600
Wire Wire Line
	1800 1800 1800 1300
Connection ~ 1800 1300
Wire Wire Line
	5700 2100 5800 2100
Wire Wire Line
	5800 1650 5800 2100
Connection ~ 5800 2100
Wire Wire Line
	5800 2100 5900 2100
Wire Wire Line
	6600 1650 6600 2200
Connection ~ 6600 2200
$Comp
L Device:R R13
U 1 1 5F592A9E
P 7800 1650
F 0 "R13" V 7593 1650 50  0000 C CNN
F 1 "1M" V 7684 1650 50  0000 C CNN
F 2 "Resistors_SMD:R_0603_HandSoldering" V 7730 1650 50  0001 C CNN
F 3 "~" H 7800 1650 50  0001 C CNN
	1    7800 1650
	0    1    1    0   
$EndComp
$Comp
L Device:C C9
U 1 1 5F592F1D
P 7800 1300
F 0 "C9" V 7548 1300 50  0000 C CNN
F 1 "4.7nF" V 7639 1300 50  0000 C CNN
F 2 "Capacitors_SMD:C_0603_HandSoldering" H 7838 1150 50  0001 C CNN
F 3 "~" H 7800 1300 50  0001 C CNN
	1    7800 1300
	0    1    1    0   
$EndComp
Wire Wire Line
	7500 2100 7500 1650
Wire Wire Line
	7500 1300 7650 1300
Connection ~ 7500 2100
Wire Wire Line
	7500 2100 7550 2100
Wire Wire Line
	7650 1650 7500 1650
Connection ~ 7500 1650
Wire Wire Line
	7500 1650 7500 1300
Wire Wire Line
	8250 2200 8250 1650
Wire Wire Line
	8250 1300 7950 1300
Connection ~ 8250 2200
Wire Wire Line
	8250 2200 8500 2200
Wire Wire Line
	7950 1650 8250 1650
Connection ~ 8250 1650
Wire Wire Line
	8250 1650 8250 1300
Text GLabel 1750 3150 2    50   Input ~ 0
ECG+
Text GLabel 1750 3250 2    50   Input ~ 0
ECG-
Text GLabel 1750 3350 2    50   Input ~ 0
ECG_REF
$Comp
L Connector:Conn_01x03_Male J2
U 1 1 5F5C7F5F
P 1550 3750
F 0 "J2" V 1704 3562 50  0000 R CNN
F 1 "Conn_01x03_Male" V 1613 3562 50  0000 R CNN
F 2 "Connector_PinHeader_2.54mm:PinHeader_1x03_P2.54mm_Vertical" H 1550 3750 50  0001 C CNN
F 3 "~" H 1550 3750 50  0001 C CNN
	1    1550 3750
	0    -1   -1   0   
$EndComp
Wire Wire Line
	1450 3550 1450 3350
Wire Wire Line
	1450 3350 1750 3350
Wire Wire Line
	1550 3550 1550 3250
Wire Wire Line
	1550 3250 1750 3250
Wire Wire Line
	1650 3550 1650 3150
Wire Wire Line
	1650 3150 1750 3150
$Comp
L Device:R R17
U 1 1 5F5E2DFA
P 10600 2600
F 0 "R17" H 10670 2646 50  0000 L CNN
F 1 "5.6k" H 10670 2555 50  0000 L CNN
F 2 "Resistors_SMD:R_0603_HandSoldering" V 10530 2600 50  0001 C CNN
F 3 "~" H 10600 2600 50  0001 C CNN
	1    10600 2600
	1    0    0    -1  
$EndComp
$Comp
L Device:R R18
U 1 1 5F5E34E1
P 10600 3100
F 0 "R18" H 10670 3146 50  0000 L CNN
F 1 "10k" H 10670 3055 50  0000 L CNN
F 2 "Resistors_SMD:R_0603_HandSoldering" V 10530 3100 50  0001 C CNN
F 3 "~" H 10600 3100 50  0001 C CNN
	1    10600 3100
	1    0    0    -1  
$EndComp
$Comp
L power:GND #PWR028
U 1 1 5F5E6659
P 10600 3350
F 0 "#PWR028" H 10600 3100 50  0001 C CNN
F 1 "GND" H 10605 3177 50  0000 C CNN
F 2 "" H 10600 3350 50  0001 C CNN
F 3 "" H 10600 3350 50  0001 C CNN
	1    10600 3350
	1    0    0    -1  
$EndComp
Wire Wire Line
	10600 2300 10600 2450
Wire Wire Line
	10200 2300 10600 2300
Wire Wire Line
	10600 2750 10600 2850
Wire Wire Line
	10700 2850 10600 2850
Connection ~ 10600 2850
Wire Wire Line
	10600 2850 10600 2950
Wire Wire Line
	10600 3250 10600 3350
$Comp
L RF_Module:ESP32-WROOM-32 U3
U 1 1 5F5F3B4A
P 4950 5800
F 0 "U3" H 4500 7150 50  0000 C CNN
F 1 "ESP32-WROOM-32" H 4550 7500 50  0000 C CNN
F 2 "RF_Module:ESP32-WROOM-32" H 4950 4300 50  0001 C CNN
F 3 "https://www.espressif.com/sites/default/files/documentation/esp32-wroom-32_datasheet_en.pdf" H 4650 5850 50  0001 C CNN
	1    4950 5800
	1    0    0    -1  
$EndComp
$Comp
L Connector:Conn_01x03_Male J4
U 1 1 5F5F65A3
P 6150 4800
F 0 "J4" H 6122 4732 50  0000 R CNN
F 1 "Conn_01x03_Male" H 6122 4823 50  0000 R CNN
F 2 "Connector_PinHeader_2.54mm:PinHeader_1x03_P2.54mm_Vertical" H 6150 4800 50  0001 C CNN
F 3 "~" H 6150 4800 50  0001 C CNN
	1    6150 4800
	-1   0    0    1   
$EndComp
$Comp
L power:GND #PWR019
U 1 1 5F5FE9B6
P 5950 5000
F 0 "#PWR019" H 5950 4750 50  0001 C CNN
F 1 "GND" H 5955 4827 50  0000 C CNN
F 2 "" H 5950 5000 50  0001 C CNN
F 3 "" H 5950 5000 50  0001 C CNN
	1    5950 5000
	1    0    0    -1  
$EndComp
Wire Wire Line
	5950 4900 5950 5000
$Comp
L power:GND #PWR014
U 1 1 5F602642
P 4950 7350
F 0 "#PWR014" H 4950 7100 50  0001 C CNN
F 1 "GND" H 4955 7177 50  0000 C CNN
F 2 "" H 4950 7350 50  0001 C CNN
F 3 "" H 4950 7350 50  0001 C CNN
	1    4950 7350
	1    0    0    -1  
$EndComp
Wire Wire Line
	4950 7200 4950 7350
$Comp
L Regulator_Linear:AMS1117-3.3 U1
U 1 1 5F60D29A
P 1800 4300
F 0 "U1" H 1800 4542 50  0000 C CNN
F 1 "AMS1117-3.3" H 1800 4451 50  0000 C CNN
F 2 "TO_SOT_Packages_SMD:SOT-223-3_TabPin2" H 1800 4500 50  0001 C CNN
F 3 "http://www.advanced-monolithic.com/pdf/ds1117.pdf" H 1900 4050 50  0001 C CNN
	1    1800 4300
	1    0    0    -1  
$EndComp
$Comp
L power:GND #PWR09
U 1 1 5F60EFF4
P 1800 4850
F 0 "#PWR09" H 1800 4600 50  0001 C CNN
F 1 "GND" H 1805 4677 50  0000 C CNN
F 2 "" H 1800 4850 50  0001 C CNN
F 3 "" H 1800 4850 50  0001 C CNN
	1    1800 4850
	1    0    0    -1  
$EndComp
$Comp
L Device:C C6
U 1 1 5F6100D7
P 5450 4000
F 0 "C6" H 5565 4046 50  0000 L CNN
F 1 "100nF" H 5565 3955 50  0000 L CNN
F 2 "Capacitors_SMD:C_0603_HandSoldering" H 5488 3850 50  0001 C CNN
F 3 "~" H 5450 4000 50  0001 C CNN
	1    5450 4000
	1    0    0    -1  
$EndComp
$Comp
L power:GND #PWR017
U 1 1 5F610AAE
P 5450 4250
F 0 "#PWR017" H 5450 4000 50  0001 C CNN
F 1 "GND" H 5455 4077 50  0000 C CNN
F 2 "" H 5450 4250 50  0001 C CNN
F 3 "" H 5450 4250 50  0001 C CNN
	1    5450 4250
	1    0    0    -1  
$EndComp
$Comp
L Device:R R3
U 1 1 5F610E8C
P 3950 4350
F 0 "R3" H 4020 4396 50  0000 L CNN
F 1 "10k" H 4020 4305 50  0000 L CNN
F 2 "Resistors_SMD:R_0603_HandSoldering" V 3880 4350 50  0001 C CNN
F 3 "~" H 3950 4350 50  0001 C CNN
	1    3950 4350
	1    0    0    -1  
$EndComp
$Comp
L Device:C C2
U 1 1 5F611D0B
P 1300 4600
F 0 "C2" H 1415 4646 50  0000 L CNN
F 1 "100nF" H 1415 4555 50  0000 L CNN
F 2 "Capacitors_SMD:C_0603_HandSoldering" H 1338 4450 50  0001 C CNN
F 3 "~" H 1300 4600 50  0001 C CNN
	1    1300 4600
	1    0    0    -1  
$EndComp
$Comp
L Device:C C4
U 1 1 5F612308
P 2300 4550
F 0 "C4" H 2415 4596 50  0000 L CNN
F 1 "100nF" H 2415 4505 50  0000 L CNN
F 2 "Capacitors_SMD:C_0603_HandSoldering" H 2338 4400 50  0001 C CNN
F 3 "~" H 2300 4550 50  0001 C CNN
	1    2300 4550
	1    0    0    -1  
$EndComp
$Comp
L power:GND #PWR05
U 1 1 5F612883
P 1300 4850
F 0 "#PWR05" H 1300 4600 50  0001 C CNN
F 1 "GND" H 1305 4677 50  0000 C CNN
F 2 "" H 1300 4850 50  0001 C CNN
F 3 "" H 1300 4850 50  0001 C CNN
	1    1300 4850
	1    0    0    -1  
$EndComp
$Comp
L power:GND #PWR012
U 1 1 5F6129EF
P 2300 4850
F 0 "#PWR012" H 2300 4600 50  0001 C CNN
F 1 "GND" H 2305 4677 50  0000 C CNN
F 2 "" H 2300 4850 50  0001 C CNN
F 3 "" H 2300 4850 50  0001 C CNN
	1    2300 4850
	1    0    0    -1  
$EndComp
Wire Wire Line
	1300 4850 1300 4750
Wire Wire Line
	1800 4600 1800 4850
Wire Wire Line
	2300 4850 2300 4700
Wire Wire Line
	1300 4450 1300 4300
Wire Wire Line
	1300 4300 1500 4300
Wire Wire Line
	2100 4300 2300 4300
Wire Wire Line
	2300 4300 2300 4400
$Comp
L power:VCC #PWR02
U 1 1 5F627237
P 1000 4250
F 0 "#PWR02" H 1000 4100 50  0001 C CNN
F 1 "VCC" H 1015 4423 50  0000 C CNN
F 2 "" H 1000 4250 50  0001 C CNN
F 3 "" H 1000 4250 50  0001 C CNN
	1    1000 4250
	1    0    0    -1  
$EndComp
Wire Wire Line
	1000 4250 1000 4300
Wire Wire Line
	1000 4300 1300 4300
Connection ~ 1300 4300
Wire Wire Line
	2300 4300 2500 4300
Connection ~ 2300 4300
Text GLabel 2500 4300 2    50   Input ~ 0
3.3_VCC
Wire Wire Line
	5450 3850 5450 3750
Wire Wire Line
	5450 3750 4950 3750
Wire Wire Line
	4950 4400 4950 3750
Connection ~ 4950 3750
Wire Wire Line
	5450 4250 5450 4150
Wire Wire Line
	5550 6800 5900 6800
Text GLabel 5900 6800 2    50   Input ~ 0
ECG_OUT
Wire Wire Line
	4950 3750 4950 3650
Text GLabel 4950 3650 1    50   Input ~ 0
3.3_VCC
$Comp
L Sensor_Motion:MPU-6050 U5
U 1 1 5F651291
P 8750 5150
F 0 "U5" H 8300 4600 50  0000 C CNN
F 1 "MPU-6050" H 8450 4500 50  0000 C CNN
F 2 "digikey-footprints:QFN-24-1EP_4x4mm" H 8750 4350 50  0001 C CNN
F 3 "https://store.invensense.com/datasheets/invensense/MPU-6050_DataSheet_V3%204.pdf" H 8750 5000 50  0001 C CNN
	1    8750 5150
	1    0    0    -1  
$EndComp
$Comp
L power:GND #PWR021
U 1 1 5F652163
P 7950 6100
F 0 "#PWR021" H 7950 5850 50  0001 C CNN
F 1 "GND" H 7955 5927 50  0000 C CNN
F 2 "" H 7950 6100 50  0001 C CNN
F 3 "" H 7950 6100 50  0001 C CNN
	1    7950 6100
	1    0    0    -1  
$EndComp
$Comp
L power:GND #PWR022
U 1 1 5F652D14
P 8750 6100
F 0 "#PWR022" H 8750 5850 50  0001 C CNN
F 1 "GND" H 8755 5927 50  0000 C CNN
F 2 "" H 8750 6100 50  0001 C CNN
F 3 "" H 8750 6100 50  0001 C CNN
	1    8750 6100
	1    0    0    -1  
$EndComp
$Comp
L Device:C C10
U 1 1 5F653F50
P 9100 4100
F 0 "C10" H 9215 4146 50  0000 L CNN
F 1 "100nF" H 9215 4055 50  0000 L CNN
F 2 "Capacitors_SMD:C_0603_HandSoldering" H 9138 3950 50  0001 C CNN
F 3 "~" H 9100 4100 50  0001 C CNN
	1    9100 4100
	1    0    0    -1  
$EndComp
$Comp
L power:GND #PWR023
U 1 1 5F65462F
P 9100 4350
F 0 "#PWR023" H 9100 4100 50  0001 C CNN
F 1 "GND" H 9105 4177 50  0000 C CNN
F 2 "" H 9100 4350 50  0001 C CNN
F 3 "" H 9100 4350 50  0001 C CNN
	1    9100 4350
	1    0    0    -1  
$EndComp
Wire Wire Line
	8050 5050 7950 5050
Wire Wire Line
	7950 5050 7950 5350
Wire Wire Line
	8050 5450 7950 5450
Connection ~ 7950 5450
$Comp
L Device:C C11
U 1 1 5F665D86
P 9600 5700
F 0 "C11" H 9715 5746 50  0000 L CNN
F 1 "100nF" H 9715 5655 50  0000 L CNN
F 2 "Capacitors_SMD:C_0603_HandSoldering" H 9638 5550 50  0001 C CNN
F 3 "~" H 9600 5700 50  0001 C CNN
	1    9600 5700
	1    0    0    -1  
$EndComp
$Comp
L power:GND #PWR024
U 1 1 5F6661DA
P 9600 6100
F 0 "#PWR024" H 9600 5850 50  0001 C CNN
F 1 "GND" H 9605 5927 50  0000 C CNN
F 2 "" H 9600 6100 50  0001 C CNN
F 3 "" H 9600 6100 50  0001 C CNN
	1    9600 6100
	1    0    0    -1  
$EndComp
Wire Wire Line
	9450 5450 9600 5450
Wire Wire Line
	9600 5450 9600 5550
Wire Wire Line
	9600 5850 9600 6100
Wire Wire Line
	8750 5850 8750 6100
Wire Wire Line
	8850 4450 8850 3900
Wire Wire Line
	8850 3900 9100 3900
Wire Wire Line
	9100 3900 9100 3950
Wire Wire Line
	9100 4350 9100 4250
Wire Wire Line
	8850 3900 8850 3800
Connection ~ 8850 3900
Text GLabel 8850 3800 1    50   Input ~ 0
3.3_VCC
$Comp
L Device:C C13
U 1 1 5F68A369
P 10050 5700
F 0 "C13" H 10165 5746 50  0000 L CNN
F 1 "2.2nF" H 10165 5655 50  0000 L CNN
F 2 "Capacitors_SMD:C_0603_HandSoldering" H 10088 5550 50  0001 C CNN
F 3 "~" H 10050 5700 50  0001 C CNN
	1    10050 5700
	1    0    0    -1  
$EndComp
$Comp
L power:GND #PWR026
U 1 1 5F68A6E7
P 10050 6100
F 0 "#PWR026" H 10050 5850 50  0001 C CNN
F 1 "GND" H 10055 5927 50  0000 C CNN
F 2 "" H 10050 6100 50  0001 C CNN
F 3 "" H 10050 6100 50  0001 C CNN
	1    10050 6100
	1    0    0    -1  
$EndComp
Wire Wire Line
	10050 5850 10050 6100
Wire Wire Line
	10050 5350 10050 5550
Wire Wire Line
	8050 5350 7950 5350
Connection ~ 7950 5350
Wire Wire Line
	7950 5350 7950 5450
Wire Wire Line
	7950 5450 7950 6100
Wire Wire Line
	8650 4450 8650 3900
Wire Wire Line
	8650 3900 8850 3900
Wire Wire Line
	9450 4850 9700 4850
Text GLabel 9700 4850 2    50   Input ~ 0
MPU6050_INT
Text GLabel 7600 4850 0    50   Input ~ 0
MPU6050_SDA
Text GLabel 7600 4950 0    50   Input ~ 0
MPU6050_SCL
Wire Wire Line
	5550 6100 5800 6100
Text GLabel 5800 6100 2    50   Input ~ 0
MPU6050_SCL
Wire Wire Line
	5550 6000 5800 6000
Text GLabel 5800 6000 2    50   Input ~ 0
MPU6050_SDA
Wire Wire Line
	5550 6200 5800 6200
Text GLabel 5800 6200 2    50   Input ~ 0
MPU6050_INT
$Comp
L Device:R R12
U 1 1 5F6D7F64
P 7700 4600
F 0 "R12" H 7770 4646 50  0000 L CNN
F 1 "10k" H 7770 4555 50  0000 L CNN
F 2 "Resistors_SMD:R_0603_HandSoldering" V 7630 4600 50  0001 C CNN
F 3 "~" H 7700 4600 50  0001 C CNN
	1    7700 4600
	1    0    0    -1  
$EndComp
$Comp
L Device:R R14
U 1 1 5F6D8B06
P 7950 4600
F 0 "R14" H 8020 4646 50  0000 L CNN
F 1 "10k" H 8020 4555 50  0000 L CNN
F 2 "Resistors_SMD:R_0603_HandSoldering" V 7880 4600 50  0001 C CNN
F 3 "~" H 7950 4600 50  0001 C CNN
	1    7950 4600
	1    0    0    -1  
$EndComp
Wire Wire Line
	7600 4850 7700 4850
Wire Wire Line
	7600 4950 7950 4950
Wire Wire Line
	7700 4750 7700 4850
Connection ~ 7700 4850
Wire Wire Line
	7700 4850 8050 4850
Wire Wire Line
	7950 4750 7950 4950
Connection ~ 7950 4950
Wire Wire Line
	7950 4950 8050 4950
Wire Wire Line
	7950 4450 7950 3900
Wire Wire Line
	7950 3900 8650 3900
Connection ~ 8650 3900
Wire Wire Line
	7700 4450 7700 3900
Wire Wire Line
	7700 3900 7950 3900
Connection ~ 7950 3900
Wire Wire Line
	9450 5350 10050 5350
$Comp
L Device:C C5
U 1 1 5F724E24
P 3950 4850
F 0 "C5" H 4065 4896 50  0000 L CNN
F 1 "100nF" H 4065 4805 50  0000 L CNN
F 2 "Capacitors_SMD:C_0603_HandSoldering" H 3988 4700 50  0001 C CNN
F 3 "~" H 3950 4850 50  0001 C CNN
	1    3950 4850
	1    0    0    -1  
$EndComp
Wire Wire Line
	3950 4600 4350 4600
Wire Wire Line
	3950 3750 3950 4200
Wire Wire Line
	3950 3750 4950 3750
Wire Wire Line
	3950 4500 3950 4600
Wire Wire Line
	3950 4700 3950 4600
Connection ~ 3950 4600
$Comp
L Device:C C1
U 1 1 5F789F6D
P 800 4600
F 0 "C1" H 915 4646 50  0000 L CNN
F 1 "10uF" H 915 4555 50  0000 L CNN
F 2 "Capacitors_SMD:C_0603_HandSoldering" H 838 4450 50  0001 C CNN
F 3 "~" H 800 4600 50  0001 C CNN
	1    800  4600
	1    0    0    -1  
$EndComp
$Comp
L power:GND #PWR01
U 1 1 5F78A7BC
P 800 4850
F 0 "#PWR01" H 800 4600 50  0001 C CNN
F 1 "GND" H 805 4677 50  0000 C CNN
F 2 "" H 800 4850 50  0001 C CNN
F 3 "" H 800 4850 50  0001 C CNN
	1    800  4850
	1    0    0    -1  
$EndComp
Wire Wire Line
	800  4450 800  4300
Wire Wire Line
	800  4300 1000 4300
Connection ~ 1000 4300
Wire Wire Line
	800  4850 800  4750
Wire Notes Line
	7450 3250 9650 3250
Wire Notes Line
	9650 3250 9650 4350
Wire Notes Line
	9650 4350 10500 4350
Wire Notes Line
	10500 4350 10500 6400
Text Notes 9700 4300 0    50   ~ 0
MPU6050 accelerator\n
Wire Notes Line
	650  700  11150 700 
Wire Notes Line
	11150 700  11150 3800
Wire Notes Line
	9650 3800 11150 3800
Text Notes 6050 3700 0    50   ~ 0
ECG conditionig circuit\n
Text Notes 4400 7600 0    50   ~ 0
ESP32\n
Wire Wire Line
	1350 3150 1650 3150
Connection ~ 1650 3150
Wire Wire Line
	1350 3250 1550 3250
Connection ~ 1550 3250
Wire Wire Line
	1350 3350 1450 3350
Connection ~ 1450 3350
$Comp
L Connector:AudioJack3 J1
U 1 1 5F5BA685
P 1150 3250
F 0 "J1" H 1132 3575 50  0000 C CNN
F 1 "AudioJack3" H 1132 3484 50  0000 C CNN
F 2 "Connectors:PJ320D_3.5mm_Jack" H 1150 3250 50  0001 C CNN
F 3 "~" H 1150 3250 50  0001 C CNN
	1    1150 3250
	1    0    0    -1  
$EndComp
Wire Wire Line
	5550 4700 5800 4700
Wire Wire Line
	5800 4700 5800 4800
Wire Wire Line
	5800 4800 5950 4800
Wire Wire Line
	5850 4700 5950 4700
Wire Wire Line
	5850 4700 5850 4900
Wire Wire Line
	5550 4900 5850 4900
Wire Notes Line
	6000 3250 6000 3750
Wire Notes Line
	6000 3750 7450 3750
Wire Notes Line
	7450 4750 6950 4750
Wire Notes Line
	6950 4750 6950 6400
Wire Notes Line
	7450 3250 7450 4750
Wire Notes Line
	6950 6400 10500 6400
Wire Notes Line
	650  4000 3700 4000
Wire Notes Line
	3700 3250 6000 3250
Wire Notes Line
	4300 5400 4300 7650
Wire Wire Line
	1850 6650 2200 6650
Connection ~ 1850 6650
Wire Wire Line
	1850 6550 1850 6650
Wire Wire Line
	1500 6550 1500 6700
Connection ~ 1500 6550
Wire Wire Line
	1550 6550 1500 6550
Wire Wire Line
	1800 6650 1850 6650
Wire Wire Line
	1500 6300 1500 6550
Text Label 1250 6300 0    50   ~ 0
CHARGE_V
Connection ~ 1300 6300
Wire Wire Line
	1300 6300 1250 6300
Connection ~ 3300 5250
Wire Wire Line
	3300 5150 3300 5250
Text Label 3300 5150 1    50   ~ 0
CHARGE_V
$Comp
L Device:Q_PMOS_GSD Q1
U 1 1 5F76DABB
P 1500 6900
F 0 "Q1" V 1749 6900 50  0000 C CNN
F 1 "FDN340P" V 1840 6900 50  0000 C CNN
F 2 "digikey-footprints:SOT-3" H 1700 7000 50  0001 C CNN
F 3 "~" H 1500 6900 50  0001 C CNN
	1    1500 6900
	0    1    1    0   
$EndComp
$Comp
L Diode:1N5819 D2
U 1 1 5F8AA789
P 1700 6550
F 0 "D2" H 1750 6650 50  0000 C CNN
F 1 "1N5819" H 1400 6550 50  0000 C CNN
F 2 "Diodes_SMD:D_SOD-123" H 1700 6375 50  0001 C CNN
F 3 "http://www.vishay.com/docs/88525/1n5817.pdf" H 1700 6550 50  0001 C CNN
	1    1700 6550
	-1   0    0    1   
$EndComp
Wire Wire Line
	1300 6300 1500 6300
Wire Wire Line
	1300 6400 1300 6300
Wire Wire Line
	1300 6700 1300 6800
$Comp
L power:GND #PWR0106
U 1 1 5F88305C
P 1300 6800
F 0 "#PWR0106" H 1300 6550 50  0001 C CNN
F 1 "GND" V 1350 6850 50  0000 C CNN
F 2 "" H 1300 6800 50  0001 C CNN
F 3 "" H 1300 6800 50  0001 C CNN
	1    1300 6800
	1    0    0    -1  
$EndComp
Wire Wire Line
	1800 7550 1800 7400
$Comp
L Device:R R24
U 1 1 5F86FF9A
P 1300 6550
F 0 "R24" H 1370 6596 50  0000 L CNN
F 1 "10k" H 1370 6505 50  0000 L CNN
F 2 "Resistors_SMD:R_0603_HandSoldering" V 1230 6550 50  0001 C CNN
F 3 "~" H 1300 6550 50  0001 C CNN
	1    1300 6550
	1    0    0    -1  
$EndComp
Wire Wire Line
	1150 7000 1150 7200
Connection ~ 1150 7000
Wire Wire Line
	1300 7000 1150 7000
Wire Wire Line
	1800 7000 1800 7100
Connection ~ 1800 7000
Wire Wire Line
	1700 7000 1800 7000
Wire Wire Line
	1800 6650 1800 7000
Wire Wire Line
	1150 6650 1150 7000
Wire Wire Line
	1050 6750 1050 7200
$Comp
L power:GND #PWR013
U 1 1 5F7253E6
P 3950 5100
F 0 "#PWR013" H 3950 4850 50  0001 C CNN
F 1 "GND" H 3955 4927 50  0000 C CNN
F 2 "" H 3950 5100 50  0001 C CNN
F 3 "" H 3950 5100 50  0001 C CNN
	1    3950 5100
	1    0    0    -1  
$EndComp
Wire Wire Line
	3950 5100 3950 5000
$Comp
L power:GND #PWR06
U 1 1 5F765D42
P 950 6250
F 0 "#PWR06" H 950 6000 50  0001 C CNN
F 1 "GND" H 955 6077 50  0000 C CNN
F 2 "" H 950 6250 50  0001 C CNN
F 3 "" H 950 6250 50  0001 C CNN
	1    950  6250
	1    0    0    -1  
$EndComp
Wire Wire Line
	850  6100 850  6150
Wire Wire Line
	850  6150 950  6150
Wire Wire Line
	950  6150 950  6100
Wire Wire Line
	950  6250 950  6150
Connection ~ 950  6150
$Comp
L power:VCC #PWR010
U 1 1 5F77FF77
P 1100 5150
F 0 "#PWR010" H 1100 5000 50  0001 C CNN
F 1 "VCC" H 1115 5323 50  0000 C CNN
F 2 "" H 1100 5150 50  0001 C CNN
F 3 "" H 1100 5150 50  0001 C CNN
	1    1100 5150
	1    0    0    -1  
$EndComp
Wire Notes Line
	650  7650 6750 7650
Text Notes 700  7600 0    50   ~ 0
Power supply\n
$Comp
L Jumper:Jumper_3_Bridged12 JP1
U 1 1 5FB456AA
P 1350 5250
F 0 "JP1" H 1450 5150 50  0000 L CNN
F 1 "Jumper_3_Bridged12" H 1200 5350 50  0000 L CNN
F 2 "Connector_PinHeader_2.54mm:PinHeader_1x03_P2.54mm_Vertical" H 1350 5250 50  0001 C CNN
F 3 "~" H 1350 5250 50  0001 C CNN
	1    1350 5250
	1    0    0    -1  
$EndComp
$Comp
L Connector:USB_B_Micro J3
U 1 1 5F76486C
P 950 5700
F 0 "J3" H 1007 6167 50  0000 C CNN
F 1 "USB_B_Micro" H 1007 6076 50  0000 C CNN
F 2 "Connectors:USB_Micro-B" H 1100 5650 50  0001 C CNN
F 3 "~" H 1100 5650 50  0001 C CNN
	1    950  5700
	1    0    0    -1  
$EndComp
Wire Wire Line
	1100 5150 1100 5250
Wire Wire Line
	1250 5500 1350 5500
Wire Wire Line
	1350 5500 1350 5400
$Comp
L Device:C C16
U 1 1 5FBE9EF7
P 1450 5650
F 0 "C16" H 1565 5696 50  0000 L CNN
F 1 "4.7uF" H 1565 5605 50  0000 L CNN
F 2 "Capacitors_SMD:C_0603_HandSoldering" H 1488 5500 50  0001 C CNN
F 3 "~" H 1450 5650 50  0001 C CNN
	1    1450 5650
	1    0    0    -1  
$EndComp
Wire Wire Line
	1450 5500 1350 5500
Connection ~ 1350 5500
$Comp
L power:GND #PWR031
U 1 1 5FC3AB85
P 1450 5900
F 0 "#PWR031" H 1450 5650 50  0001 C CNN
F 1 "GND" H 1455 5727 50  0000 C CNN
F 2 "" H 1450 5900 50  0001 C CNN
F 3 "" H 1450 5900 50  0001 C CNN
	1    1450 5900
	1    0    0    -1  
$EndComp
Wire Wire Line
	1450 5900 1450 5800
$Comp
L Battery_Management:MCP73831-2-OT U6
U 1 1 5F5E286F
P 2250 5700
F 0 "U6" H 2100 6000 50  0000 C CNN
F 1 "MCP73831-2-OT" H 2650 6000 50  0000 C CNN
F 2 "digikey-footprints:SOT-23-8" H 2300 5450 50  0001 L CIN
F 3 "http://ww1.microchip.com/downloads/en/DeviceDoc/20001984g.pdf" H 2100 5650 50  0001 C CNN
	1    2250 5700
	1    0    0    -1  
$EndComp
$Comp
L Device:R R20
U 1 1 5F5F86AB
P 2950 5800
F 0 "R20" V 3050 5800 50  0000 C CNN
F 1 "470" V 3150 5800 50  0000 C CNN
F 2 "Resistors_SMD:R_0603_HandSoldering" V 2880 5800 50  0001 C CNN
F 3 "~" H 2950 5800 50  0001 C CNN
	1    2950 5800
	0    1    1    0   
$EndComp
$Comp
L Device:LED D1
U 1 1 5F5F9FC5
P 3300 5600
F 0 "D1" V 3339 5482 50  0000 R CNN
F 1 "LED" V 3248 5482 50  0000 R CNN
F 2 "LEDs:LED_D3.0mm" H 3300 5600 50  0001 C CNN
F 3 "~" H 3300 5600 50  0001 C CNN
	1    3300 5600
	0    -1   -1   0   
$EndComp
$Comp
L power:GND #PWR0101
U 1 1 5F6243F4
P 2250 6150
F 0 "#PWR0101" H 2250 5900 50  0001 C CNN
F 1 "GND" H 2255 5977 50  0000 C CNN
F 2 "" H 2250 6150 50  0001 C CNN
F 3 "" H 2250 6150 50  0001 C CNN
	1    2250 6150
	1    0    0    -1  
$EndComp
Wire Wire Line
	2650 5800 2800 5800
Wire Wire Line
	3100 5800 3300 5800
Wire Wire Line
	3300 5800 3300 5750
Wire Wire Line
	1600 5250 2250 5250
Wire Wire Line
	3300 5250 3300 5450
Wire Wire Line
	2250 5400 2250 5250
Connection ~ 2250 5250
Wire Wire Line
	2250 5250 3300 5250
$Comp
L Device:R R19
U 1 1 5F690211
P 1750 6050
F 0 "R19" H 1820 6096 50  0000 L CNN
F 1 "2k" H 1820 6005 50  0000 L CNN
F 2 "Resistors_SMD:R_0603_HandSoldering" V 1680 6050 50  0001 C CNN
F 3 "~" H 1750 6050 50  0001 C CNN
	1    1750 6050
	1    0    0    -1  
$EndComp
$Comp
L power:GND #PWR0102
U 1 1 5F69100B
P 1750 6300
F 0 "#PWR0102" H 1750 6050 50  0001 C CNN
F 1 "GND" H 1900 6250 50  0000 C CNN
F 2 "" H 1750 6300 50  0001 C CNN
F 3 "" H 1750 6300 50  0001 C CNN
	1    1750 6300
	1    0    0    -1  
$EndComp
Wire Wire Line
	1750 5900 1750 5800
Wire Wire Line
	1750 5800 1850 5800
Wire Wire Line
	1750 6300 1750 6200
Text GLabel 2750 5600 2    50   Input ~ 0
BAT
Wire Wire Line
	2650 5600 2750 5600
Text GLabel 900  6650 0    50   Input ~ 0
BAT
$Comp
L Connector:Conn_01x02_Male J5
U 1 1 5F6C11FB
P 1050 7400
F 0 "J5" V 1000 7400 50  0000 R CNN
F 1 "Conn_01x02_Male" H 1600 7500 50  0000 R CNN
F 2 "Connector_PinHeader_2.54mm:PinHeader_1x02_P2.54mm_Vertical" H 1050 7400 50  0001 C CNN
F 3 "~" H 1050 7400 50  0001 C CNN
	1    1050 7400
	0    -1   -1   0   
$EndComp
$Comp
L power:GND #PWR0103
U 1 1 5F6CFB70
P 800 6900
F 0 "#PWR0103" H 800 6650 50  0001 C CNN
F 1 "GND" H 805 6727 50  0000 C CNN
F 2 "" H 800 6900 50  0001 C CNN
F 3 "" H 800 6900 50  0001 C CNN
	1    800  6900
	1    0    0    -1  
$EndComp
Wire Wire Line
	800  6900 800  6750
Wire Wire Line
	800  6750 1050 6750
Wire Wire Line
	900  6650 1150 6650
$Comp
L Regulator_Switching:TPS63000 U7
U 1 1 5F70A749
P 2950 6850
F 0 "U7" H 2950 7517 50  0000 C CNN
F 1 "TPS63000" H 2950 7426 50  0000 C CNN
F 2 "digikey-footprints:QFN-10-1EP_3x3mm" H 3800 6300 50  0001 C CNN
F 3 "http://www.ti.com/lit/ds/symlink/tps63000.pdf" H 2650 7400 50  0001 C CNN
	1    2950 6850
	1    0    0    -1  
$EndComp
Wire Wire Line
	2250 6000 2250 6150
$Comp
L power:GND #PWR030
U 1 1 5F72558A
P 2850 7550
F 0 "#PWR030" H 2850 7300 50  0001 C CNN
F 1 "GND" H 2855 7377 50  0000 C CNN
F 2 "" H 2850 7550 50  0001 C CNN
F 3 "" H 2850 7550 50  0001 C CNN
	1    2850 7550
	1    0    0    -1  
$EndComp
Wire Wire Line
	2850 7450 2850 7500
Wire Wire Line
	2850 7500 2950 7500
Wire Wire Line
	2950 7500 2950 7450
Connection ~ 2850 7500
Wire Wire Line
	2850 7500 2850 7550
Wire Wire Line
	2550 6750 2450 6750
Wire Wire Line
	2450 6750 2450 6850
Wire Wire Line
	2450 7050 2550 7050
Wire Wire Line
	2550 6850 2450 6850
Connection ~ 2450 6850
Wire Wire Line
	2450 6850 2450 7050
$Comp
L Device:L L1
U 1 1 5F7651F0
P 3200 6100
F 0 "L1" V 3390 6100 50  0000 C CNN
F 1 "220uH" V 3299 6100 50  0000 C CNN
F 2 "Inductors:Inductor_Wurth_HCI-7050" H 3200 6100 50  0001 C CNN
F 3 "~" H 3200 6100 50  0001 C CNN
	1    3200 6100
	0    -1   -1   0   
$EndComp
Wire Wire Line
	3350 6100 3450 6100
Wire Wire Line
	3050 6100 2450 6100
Wire Wire Line
	2450 6100 2450 6450
Wire Wire Line
	2450 6450 2550 6450
$Comp
L Device:R R21
U 1 1 5F782C75
P 2200 6850
F 0 "R21" H 2270 6896 50  0000 L CNN
F 1 "100" H 2270 6805 50  0000 L CNN
F 2 "Resistors_SMD:R_0603_HandSoldering" V 2130 6850 50  0001 C CNN
F 3 "~" H 2200 6850 50  0001 C CNN
	1    2200 6850
	1    0    0    -1  
$EndComp
Wire Wire Line
	2550 6650 2200 6650
Wire Wire Line
	2200 6650 2200 6700
Wire Wire Line
	2200 7000 2200 7050
Wire Wire Line
	2200 7050 2450 7050
Connection ~ 2450 7050
$Comp
L Device:C C15
U 1 1 5F7A0A69
P 2200 7300
F 0 "C15" H 2315 7346 50  0000 L CNN
F 1 "100nF" H 2315 7255 50  0000 L CNN
F 2 "Capacitors_SMD:C_0603_HandSoldering" H 2238 7150 50  0001 C CNN
F 3 "~" H 2200 7300 50  0001 C CNN
	1    2200 7300
	1    0    0    -1  
$EndComp
$Comp
L power:GND #PWR029
U 1 1 5F7A1760
P 2200 7550
F 0 "#PWR029" H 2200 7300 50  0001 C CNN
F 1 "GND" H 2205 7377 50  0000 C CNN
F 2 "" H 2200 7550 50  0001 C CNN
F 3 "" H 2200 7550 50  0001 C CNN
	1    2200 7550
	1    0    0    -1  
$EndComp
Wire Wire Line
	2200 7050 2200 7150
Connection ~ 2200 7050
Wire Wire Line
	2200 7450 2200 7550
$Comp
L Device:R R23
U 1 1 5F7BFC31
P 3500 7250
F 0 "R23" H 3570 7296 50  0000 L CNN
F 1 "29k" H 3570 7205 50  0000 L CNN
F 2 "Resistors_SMD:R_0603_HandSoldering" V 3430 7250 50  0001 C CNN
F 3 "~" H 3500 7250 50  0001 C CNN
	1    3500 7250
	1    0    0    -1  
$EndComp
$Comp
L power:GND #PWR032
U 1 1 5F7EE39F
P 3500 7550
F 0 "#PWR032" H 3500 7300 50  0001 C CNN
F 1 "GND" H 3505 7377 50  0000 C CNN
F 2 "" H 3500 7550 50  0001 C CNN
F 3 "" H 3500 7550 50  0001 C CNN
	1    3500 7550
	1    0    0    -1  
$EndComp
Wire Notes Line
	3700 5400 4300 5400
Wire Notes Line
	3700 3250 3700 5400
$Comp
L Device:R R22
U 1 1 5F82D6DC
P 3500 6850
F 0 "R22" H 3430 6804 50  0000 R CNN
F 1 "261k" H 3430 6895 50  0000 R CNN
F 2 "Resistors_SMD:R_0603_HandSoldering" V 3430 6850 50  0001 C CNN
F 3 "~" H 3500 6850 50  0001 C CNN
	1    3500 6850
	-1   0    0    1   
$EndComp
Wire Wire Line
	3350 6450 3450 6450
Wire Wire Line
	3450 6450 3450 6100
Wire Wire Line
	3350 6650 3500 6650
Wire Wire Line
	3500 6650 3500 6700
Wire Wire Line
	3350 6850 3400 6850
Wire Wire Line
	3400 6850 3400 7050
Wire Wire Line
	3400 7050 3500 7050
Wire Wire Line
	3500 7050 3500 7000
Wire Wire Line
	3500 7100 3500 7050
Connection ~ 3500 7050
Wire Wire Line
	3500 7550 3500 7400
$Comp
L Device:C C17
U 1 1 5F8E66E6
P 3800 6900
F 0 "C17" H 3800 7000 50  0000 L CNN
F 1 "10uF" H 3800 6800 50  0000 L CNN
F 2 "Capacitors_SMD:C_0603_HandSoldering" H 3838 6750 50  0001 C CNN
F 3 "~" H 3800 6900 50  0001 C CNN
	1    3800 6900
	1    0    0    -1  
$EndComp
Connection ~ 3500 6650
$Comp
L power:GND #PWR033
U 1 1 5F8F74BB
P 3800 7100
F 0 "#PWR033" H 3800 6850 50  0001 C CNN
F 1 "GND" H 3805 6927 50  0000 C CNN
F 2 "" H 3800 7100 50  0001 C CNN
F 3 "" H 3800 7100 50  0001 C CNN
	1    3800 7100
	1    0    0    -1  
$EndComp
Wire Wire Line
	3800 7050 3800 7100
$Comp
L power:VCC #PWR034
U 1 1 5F95BE6A
P 4100 6550
F 0 "#PWR034" H 4100 6400 50  0001 C CNN
F 1 "VCC" H 4115 6723 50  0000 C CNN
F 2 "" H 4100 6550 50  0001 C CNN
F 3 "" H 4100 6550 50  0001 C CNN
	1    4100 6550
	1    0    0    -1  
$EndComp
Wire Wire Line
	4100 6550 4100 6650
$Comp
L Device:C C18
U 1 1 5F96DC29
P 1800 7250
F 0 "C18" H 1915 7296 50  0000 L CNN
F 1 "10uF" H 1915 7205 50  0000 L CNN
F 2 "Capacitors_SMD:C_0603_HandSoldering" H 1838 7100 50  0001 C CNN
F 3 "~" H 1800 7250 50  0001 C CNN
	1    1800 7250
	1    0    0    -1  
$EndComp
Connection ~ 2200 6650
$Comp
L power:GND #PWR0104
U 1 1 5F9A156F
P 1800 7550
F 0 "#PWR0104" H 1800 7300 50  0001 C CNN
F 1 "GND" H 1805 7377 50  0000 C CNN
F 2 "" H 1800 7550 50  0001 C CNN
F 3 "" H 1800 7550 50  0001 C CNN
	1    1800 7550
	1    0    0    -1  
$EndComp
Wire Wire Line
	3500 6650 3800 6650
Wire Wire Line
	3800 6650 3800 6750
Connection ~ 3800 6650
Wire Wire Line
	3800 6650 4050 6650
$Comp
L Device:C C19
U 1 1 5F9F8236
P 4050 6900
F 0 "C19" H 4050 7000 50  0000 L CNN
F 1 "10uF" H 4050 6800 50  0000 L CNN
F 2 "Capacitors_SMD:C_0603_HandSoldering" H 4088 6750 50  0001 C CNN
F 3 "~" H 4050 6900 50  0001 C CNN
	1    4050 6900
	1    0    0    -1  
$EndComp
Wire Wire Line
	4050 6750 4050 6650
Connection ~ 4050 6650
Wire Wire Line
	4050 6650 4100 6650
$Comp
L power:GND #PWR0105
U 1 1 5FA09F2C
P 4050 7100
F 0 "#PWR0105" H 4050 6850 50  0001 C CNN
F 1 "GND" H 4055 6927 50  0000 C CNN
F 2 "" H 4050 7100 50  0001 C CNN
F 3 "" H 4050 7100 50  0001 C CNN
	1    4050 7100
	1    0    0    -1  
$EndComp
Wire Wire Line
	4050 7100 4050 7050
Wire Notes Line
	650  700  650  7650
$EndSCHEMATC
